{
  "project_info": {
    "project_number": "918440878259",
    "project_id": "phoneauthentication-fb3c3",
    "storage_bucket": "phoneauthentication-fb3c3.appspot.com"
  },
  "client": [
    {
      "client_info": {
        "mobilesdk_app_id": "1:918440878259:android:4b5d2177ec35ccae0a10c6",
        "android_client_info": {
          "package_name": "com.phoneauthentication"
        }
      },
      "oauth_client": [
        {
          "client_id": "918440878259-1o8c5aiq10qn1978hoq2845k96cb0g10.apps.googleusercontent.com",
          "client_type": 1,
          "android_info": {
            "package_name": "com.phoneauthentication",
            "certificate_hash": "81f5e7a94d3a7bc354a9757fe3deeb6dd6958d24"
          }
        }
      ],
      "api_key": [
        {
          "current_key": "AIzaSyD19WLGaFsLWzlA4tK8zk6VkA7qsvWCs9E"
        }
      ],
      "services": {
        "appinvite_service": {
          "other_platform_oauth_client": []
        }
      }
    }
  ],
  "configuration_version": "1"
}